[
  {
    "model": "teritories.Territory",
    "pk": 9,
    "fields": {
      "country": "CZ",
      "name": "Juhočeský kraj",
      "code": "CZ-JC"
    }
  },
  {
    "model": "teritories.Territory",
    "pk": 10,
    "fields": {
      "country": "CZ",
      "name": "Juhomoravský kraj",
      "code": "CZ-JM"
    }
  },
  {
    "model": "teritories.Territory",
    "pk": 11,
    "fields": {
      "country": "CZ",
      "name": "Karlovarský kraj",
      "code": "CZ-KA"
    }
  },
  {
    "model": "teritories.Territory",
    "pk": 12,
    "fields": {
      "country": "CZ",
      "name": "Královohradecký kraj",
      "code": "CZ-KR"
    }
  },
  {
    "model": "teritories.Territory",
    "pk": 13,
    "fields": {
      "country": "CZ",
      "name": "Liberecký kraj",
      "code": "CZ-LI"
    }
  },
  {
    "model": "teritories.Territory",
    "pk": 14,
    "fields": {
      "country": "CZ",
      "name": "Moravskosliezsky kraj",
      "code": "CZ-MO"
    }
  },
  {
    "model": "teritories.Territory",
    "pk": 15,
    "fields": {
      "country": "CZ",
      "name": "Olomoucký kraj",
      "code": "CZ-OL"
    }
  },
  {
    "model": "teritories.Territory",
    "pk": 16,
    "fields": {
      "country": "CZ",
      "name": "Pardubický kraj",
      "code": "CZ-PA"
    }
  },
  {
    "model": "teritories.Territory",
    "pk": 17,
    "fields": {
      "country": "CZ",
      "name": "Plzeňský kraj",
      "code": "CZ-PL"
    }
  },
  {
    "model": "teritories.Territory",
    "pk": 18,
    "fields": {
      "country": "CZ",
      "name": "Hlavné mesto Praha",
      "code": "CZ-PR"
    }
  },
  {
    "model": "teritories.Territory",
    "pk": 19,
    "fields": {
      "country": "CZ",
      "name": "Stredočeský kraj",
      "code": "CZ-ST"
    }
  },
  {
    "model": "teritories.Territory",
    "pk": 20,
    "fields": {
      "country": "CZ",
      "name": "Ústecký kraj",
      "code": "CZ-US"
    }
  },
  {
    "model": "teritories.Territory",
    "pk": 21,
    "fields": {
      "country": "CZ",
      "name": "Kraj Vysočina",
      "code": "CZ-VY"
    }
  },
  {
    "model": "teritories.Territory",
    "pk": 22,
    "fields": {
      "country": "CZ",
      "name": "Zlínsky kraj",
      "code": "CZ-ZL"
    }
  }
]