[
  {
    "model": "teritories.Territory",
    "pk": 32,
    "fields": {
      "country": "HU",
      "name": "Bács-Kiskun",
      "code": "HU-1"
    }
  },
  {
    "model": "teritories.Territory",
    "pk": 33,
    "fields": {
      "country": "HU",
      "name": "Baranya",
      "code": "HU-2"
    }
  },
  {
    "model": "teritories.Territory",
    "pk": 34,
    "fields": {
      "country": "HU",
      "name": "Békés",
      "code": "HU-3"
    }
  },
  {
    "model": "teritories.Territory",
    "pk": 35,
    "fields": {
      "country": "HU",
      "name": "Borsod-Abaúj-Zemplén",
      "code": "HU-4"
    }
  },
  {
    "model": "teritories.Territory",
    "pk": 36,
    "fields": {
      "country": "HU",
      "name": "Csongrád",
      "code": "HU-5"
    }
  },
  {
    "model": "teritories.Territory",
    "pk": 37,
    "fields": {
      "country": "HU",
      "name": "Fejér",
      "code": "HU-6"
    }
  },
  {
    "model": "teritories.Territory",
    "pk": 38,
    "fields": {
      "country": "HU",
      "name": "Győr-Moson-Sopron",
      "code": "HU-7"
    }
  },
  {
    "model": "teritories.Territory",
    "pk": 39,
    "fields": {
      "country": "HU",
      "name": "Hajdú-Bihar",
      "code": "HU-8"
    }
  },
  {
    "model": "teritories.Territory",
    "pk": 40,
    "fields": {
      "country": "HU",
      "name": "Heves",
      "code": "HU-9"
    }
  },
  {
    "model": "teritories.Territory",
    "pk": 41,
    "fields": {
      "country": "HU",
      "name": "Jász-Nagykun-Szolnok",
      "code": "HU-10"
    }
  },
  {
    "model": "teritories.Territory",
    "pk": 42,
    "fields": {
      "country": "HU",
      "name": "Komárom-Esztergom",
      "code": "HU-11"
    }
  },
  {
    "model": "teritories.Territory",
    "pk": 43,
    "fields": {
      "country": "HU",
      "name": "Nógrád",
      "code": "HU-12"
    }
  },
  {
    "model": "teritories.Territory",
    "pk": 44,
    "fields": {
      "country": "HU",
      "name": "Pest",
      "code": "HU-13"
    }
  },
  {
    "model": "teritories.Territory",
    "pk": 45,
    "fields": {
      "country": "HU",
      "name": "Somogy",
      "code": "HU-14"
    }
  },
  {
    "model": "teritories.Territory",
    "pk": 46,
    "fields": {
      "country": "HU",
      "name": "Szabolcs-Szatmár-Bereg",
      "code": "HU-15"
    }
  },
  {
    "model": "teritories.Territory",
    "pk": 47,
    "fields": {
      "country": "HU",
      "name": "Tolna",
      "code": "HU-16"
    }
  },
  {
    "model": "teritories.Territory",
    "pk": 48,
    "fields": {
      "country": "HU",
      "name": "Vas",
      "code": "HU-17"
    }
  },
  {
    "model": "teritories.Territory",
    "pk": 49,
    "fields": {
      "country": "HU",
      "name": "Veszprém",
      "code": "HU-18"
    }
  },
  {
    "model": "teritories.Territory",
    "pk": 50,
    "fields": {
      "country": "HU",
      "name": "Zala",
      "code": "HU-19"
    }
  }
]
