[
  {
    "model": "teritories.Territory",
    "pk": 1,
    "fields": {
      "country": "SK",
      "name": "Bratislavský kraj",
      "code": "SK-BL"
    }
  },
  {
    "model": "teritories.Territory",
    "pk": 2,
    "fields": {
      "country": "SK",
      "name": "Trnavský kraj",
      "code": "SK-TA"
    }
  },
  {
    "model": "teritories.Territory",
    "pk": 3,
    "fields": {
      "country": "SK",
      "name": "Trenčianský kraj",
      "code": "SK-TN"
    }
  },
  {
    "model": "teritories.Territory",
    "pk": 4,
    "fields": {
      "country": "SK",
      "name": "Nitrianský kraj",
      "code": "SK-NI"
    }
  },
  {
    "model": "teritories.Territory",
    "pk": 5,
    "fields": {
      "country": "SK",
      "name": "Žilinský kraj",
      "code": "SK-ZI"
    }
  },
  {
    "model": "teritories.Territory",
    "pk": 6,
    "fields": {
      "country": "SK",
      "name": "Banskobystrický kraj",
      "code": "SK-BC"
    }
  },
  {
    "model": "teritories.Territory",
    "pk": 7,
    "fields": {
      "country": "SK",
      "name": "Prešovský kraj",
      "code": "SK-PV"
    }
  },
  {
    "model": "teritories.Territory",
    "pk": 8,
    "fields": {
      "country": "SK",
      "name": "Košický kraj",
      "code": "SK-KI"
    }
  }
]